{
  "project_info": {
    "project_number": "144089720609",
    "firebase_url": "https://hyr-app-35831.firebaseio.com",
    "project_id": "hyr-app-35831",
    "storage_bucket": "hyr-app-35831.appspot.com"
  },
  "client": [
    {
      "client_info": {
        "mobilesdk_app_id": "1:144089720609:android:d636ece9ac112fc9",
        "android_client_info": {
          "package_name": "com.paycabs"
        }
      },
      "oauth_client": [
        {
          "client_id": "144089720609-efu04p9cs1l43p2thkl87i4modq7gdg3.apps.googleusercontent.com",
          "client_type": 1,
          "android_info": {
            "package_name": "com.paycabs",
            "certificate_hash": "8b8582f3a9ada3fe73eda522288d6bdef8e9ecba"
          }
        },
        {
          "client_id": "144089720609-svf6ad0op6e03agiu5is5qlga9ovfj5c.apps.googleusercontent.com",
          "client_type": 3
        }
      ],
      "api_key": [
        {
          "current_key": "AIzaSyCBwnCn-JyfFIcHSBaRrXvFtNRVfpo-xt4"
        }
      ],
      "services": {
        "analytics_service": {
          "status": 1
        },
        "appinvite_service": {
          "status": 2,
          "other_platform_oauth_client": [
            {
              "client_id": "144089720609-svf6ad0op6e03agiu5is5qlga9ovfj5c.apps.googleusercontent.com",
              "client_type": 3
            }
          ]
        },
        "ads_service": {
          "status": 2
        }
      }
    }
  ],
  "configuration_version": "1"
}